EESchema Schematic File Version 4
EELAYER 30 0
EELAYER END
$Descr A4 11693 8268
encoding utf-8
Sheet 6 78
Title ""
Date ""
Rev ""
Comp ""
Comment1 ""
Comment2 ""
Comment3 ""
Comment4 ""
$EndDescr
$Comp
L pspice:CAP C?
U 1 1 5F35F5C9
P 5150 2400
AR Path="/5F35E3B0/5F35F5C9" Ref="C?"  Part="1" 
AR Path="/5F449C45/5F35F5C9" Ref="C?"  Part="1" 
AR Path="/5F450F7C/5F35F5C9" Ref="C?"  Part="1" 
AR Path="/5F459E15/5F35F5C9" Ref="C?"  Part="1" 
AR Path="/5F37F60A/5F35F5C9" Ref="C?"  Part="1" 
AR Path="/5F37F649/5F35F5C9" Ref="C?"  Part="1" 
AR Path="/5F37F688/5F35F5C9" Ref="C?"  Part="1" 
AR Path="/5F37F6C7/5F35F5C9" Ref="C?"  Part="1" 
AR Path="/5F380EFA/5F38AEF1/5F35F5C9" Ref="C?"  Part="1" 
AR Path="/5F380EFA/5F38AF20/5F35F5C9" Ref="C?"  Part="1" 
AR Path="/5F380EFA/5F38AF4F/5F35F5C9" Ref="C?"  Part="1" 
AR Path="/5F380EFA/5F38AF7E/5F35F5C9" Ref="C?"  Part="1" 
AR Path="/5F38AEF1/5F35F5C9" Ref="C?"  Part="1" 
AR Path="/5F38AF20/5F35F5C9" Ref="C?"  Part="1" 
AR Path="/5F38AF4F/5F35F5C9" Ref="C?"  Part="1" 
AR Path="/5F38AF7E/5F35F5C9" Ref="C?"  Part="1" 
AR Path="/5F4C2A6A/5F35F5C9" Ref="C?"  Part="1" 
AR Path="/5F4C2A99/5F35F5C9" Ref="C?"  Part="1" 
AR Path="/5F4C2AC8/5F35F5C9" Ref="C?"  Part="1" 
AR Path="/5F4C2AF7/5F35F5C9" Ref="C?"  Part="1" 
AR Path="/5F6E3882/5F35F5C9" Ref="C?"  Part="1" 
AR Path="/5F6DCDFC/5F35F5C9" Ref="C?"  Part="1" 
AR Path="/5F6DF6FF/5F35F5C9" Ref="C?"  Part="1" 
AR Path="/5F6DF721/5F35F5C9" Ref="C?"  Part="1" 
AR Path="/5F6E383E/5F35F5C9" Ref="C?"  Part="1" 
AR Path="/5F6E3860/5F35F5C9" Ref="C?"  Part="1" 
AR Path="/5F6E38A4/5F35F5C9" Ref="C?"  Part="1" 
AR Path="/5F4F6AAA/5F38AEF1/5F35F5C9" Ref="C305"  Part="1" 
AR Path="/5F4F6AAA/5F6DCDFC/5F35F5C9" Ref="C605"  Part="1" 
AR Path="/5F4F6AAA/5F6DF6FF/5F35F5C9" Ref="C805"  Part="1" 
AR Path="/5F4F6AAA/5F6DF721/5F35F5C9" Ref="C1105"  Part="1" 
AR Path="/5F4F6AAA/5F6E383E/5F35F5C9" Ref="C1405"  Part="1" 
AR Path="/5F4F6AAA/5F6E3860/5F35F5C9" Ref="C1705"  Part="1" 
AR Path="/5F4F6AAA/5F6E3882/5F35F5C9" Ref="C2005"  Part="1" 
AR Path="/5F4F6AAA/5F6E38A4/5F35F5C9" Ref="C2305"  Part="1" 
F 0 "C2305" V 4835 2400 50  0000 C CNN
F 1 "1000p" V 4926 2400 50  0000 C CNN
F 2 "Capacitor_SMD:C_0603_1608Metric" H 5150 2400 50  0001 C CNN
F 3 "~" H 5150 2400 50  0001 C CNN
	1    5150 2400
	0    1    1    0   
$EndComp
$Comp
L pspice:R R?
U 1 1 5F35F5CF
P 5150 1900
AR Path="/5F35E3B0/5F35F5CF" Ref="R?"  Part="1" 
AR Path="/5F449C45/5F35F5CF" Ref="R?"  Part="1" 
AR Path="/5F450F7C/5F35F5CF" Ref="R?"  Part="1" 
AR Path="/5F459E15/5F35F5CF" Ref="R?"  Part="1" 
AR Path="/5F37F60A/5F35F5CF" Ref="R?"  Part="1" 
AR Path="/5F37F649/5F35F5CF" Ref="R?"  Part="1" 
AR Path="/5F37F688/5F35F5CF" Ref="R?"  Part="1" 
AR Path="/5F37F6C7/5F35F5CF" Ref="R?"  Part="1" 
AR Path="/5F380EFA/5F38AEF1/5F35F5CF" Ref="R?"  Part="1" 
AR Path="/5F380EFA/5F38AF20/5F35F5CF" Ref="R?"  Part="1" 
AR Path="/5F380EFA/5F38AF4F/5F35F5CF" Ref="R?"  Part="1" 
AR Path="/5F380EFA/5F38AF7E/5F35F5CF" Ref="R?"  Part="1" 
AR Path="/5F38AEF1/5F35F5CF" Ref="R?"  Part="1" 
AR Path="/5F38AF20/5F35F5CF" Ref="R?"  Part="1" 
AR Path="/5F38AF4F/5F35F5CF" Ref="R?"  Part="1" 
AR Path="/5F38AF7E/5F35F5CF" Ref="R?"  Part="1" 
AR Path="/5F4C2A6A/5F35F5CF" Ref="R?"  Part="1" 
AR Path="/5F4C2A99/5F35F5CF" Ref="R?"  Part="1" 
AR Path="/5F4C2AC8/5F35F5CF" Ref="R?"  Part="1" 
AR Path="/5F4C2AF7/5F35F5CF" Ref="R?"  Part="1" 
AR Path="/5F6E3882/5F35F5CF" Ref="R?"  Part="1" 
AR Path="/5F6DCDFC/5F35F5CF" Ref="R?"  Part="1" 
AR Path="/5F6DF6FF/5F35F5CF" Ref="R?"  Part="1" 
AR Path="/5F6DF721/5F35F5CF" Ref="R?"  Part="1" 
AR Path="/5F6E383E/5F35F5CF" Ref="R?"  Part="1" 
AR Path="/5F6E3860/5F35F5CF" Ref="R?"  Part="1" 
AR Path="/5F6E38A4/5F35F5CF" Ref="R?"  Part="1" 
AR Path="/5F4F6AAA/5F38AEF1/5F35F5CF" Ref="R309"  Part="1" 
AR Path="/5F4F6AAA/5F6DCDFC/5F35F5CF" Ref="R609"  Part="1" 
AR Path="/5F4F6AAA/5F6DF6FF/5F35F5CF" Ref="R809"  Part="1" 
AR Path="/5F4F6AAA/5F6DF721/5F35F5CF" Ref="R1109"  Part="1" 
AR Path="/5F4F6AAA/5F6E383E/5F35F5CF" Ref="R1409"  Part="1" 
AR Path="/5F4F6AAA/5F6E3860/5F35F5CF" Ref="R1709"  Part="1" 
AR Path="/5F4F6AAA/5F6E3882/5F35F5CF" Ref="R2009"  Part="1" 
AR Path="/5F4F6AAA/5F6E38A4/5F35F5CF" Ref="R2309"  Part="1" 
F 0 "R2309" V 5355 1900 50  0000 C CNN
F 1 "100k" V 5264 1900 50  0000 C CNN
F 2 "Resistor_SMD:R_0603_1608Metric" H 5150 1900 50  0001 C CNN
F 3 "~" H 5150 1900 50  0001 C CNN
	1    5150 1900
	0    -1   -1   0   
$EndComp
Wire Wire Line
	4400 1900 4550 1900
Wire Wire Line
	5400 1900 5400 2400
$Comp
L pspice:CAP C?
U 1 1 5F35F5DD
P 3050 3200
AR Path="/5F35E3B0/5F35F5DD" Ref="C?"  Part="1" 
AR Path="/5F449C45/5F35F5DD" Ref="C?"  Part="1" 
AR Path="/5F450F7C/5F35F5DD" Ref="C?"  Part="1" 
AR Path="/5F459E15/5F35F5DD" Ref="C?"  Part="1" 
AR Path="/5F37F60A/5F35F5DD" Ref="C?"  Part="1" 
AR Path="/5F37F649/5F35F5DD" Ref="C?"  Part="1" 
AR Path="/5F37F688/5F35F5DD" Ref="C?"  Part="1" 
AR Path="/5F37F6C7/5F35F5DD" Ref="C?"  Part="1" 
AR Path="/5F380EFA/5F38AEF1/5F35F5DD" Ref="C?"  Part="1" 
AR Path="/5F380EFA/5F38AF20/5F35F5DD" Ref="C?"  Part="1" 
AR Path="/5F380EFA/5F38AF4F/5F35F5DD" Ref="C?"  Part="1" 
AR Path="/5F380EFA/5F38AF7E/5F35F5DD" Ref="C?"  Part="1" 
AR Path="/5F38AEF1/5F35F5DD" Ref="C?"  Part="1" 
AR Path="/5F38AF20/5F35F5DD" Ref="C?"  Part="1" 
AR Path="/5F38AF4F/5F35F5DD" Ref="C?"  Part="1" 
AR Path="/5F38AF7E/5F35F5DD" Ref="C?"  Part="1" 
AR Path="/5F4C2A6A/5F35F5DD" Ref="C?"  Part="1" 
AR Path="/5F4C2A99/5F35F5DD" Ref="C?"  Part="1" 
AR Path="/5F4C2AC8/5F35F5DD" Ref="C?"  Part="1" 
AR Path="/5F4C2AF7/5F35F5DD" Ref="C?"  Part="1" 
AR Path="/5F6E3882/5F35F5DD" Ref="C?"  Part="1" 
AR Path="/5F6DCDFC/5F35F5DD" Ref="C?"  Part="1" 
AR Path="/5F6DF6FF/5F35F5DD" Ref="C?"  Part="1" 
AR Path="/5F6DF721/5F35F5DD" Ref="C?"  Part="1" 
AR Path="/5F6E383E/5F35F5DD" Ref="C?"  Part="1" 
AR Path="/5F6E3860/5F35F5DD" Ref="C?"  Part="1" 
AR Path="/5F6E38A4/5F35F5DD" Ref="C?"  Part="1" 
AR Path="/5F4F6AAA/5F38AEF1/5F35F5DD" Ref="C301"  Part="1" 
AR Path="/5F4F6AAA/5F6DCDFC/5F35F5DD" Ref="C601"  Part="1" 
AR Path="/5F4F6AAA/5F6DF6FF/5F35F5DD" Ref="C801"  Part="1" 
AR Path="/5F4F6AAA/5F6DF721/5F35F5DD" Ref="C1101"  Part="1" 
AR Path="/5F4F6AAA/5F6E383E/5F35F5DD" Ref="C1401"  Part="1" 
AR Path="/5F4F6AAA/5F6E3860/5F35F5DD" Ref="C1701"  Part="1" 
AR Path="/5F4F6AAA/5F6E3882/5F35F5DD" Ref="C2001"  Part="1" 
AR Path="/5F4F6AAA/5F6E38A4/5F35F5DD" Ref="C2301"  Part="1" 
F 0 "C2301" V 2735 3200 50  0000 C CNN
F 1 "100n" V 2826 3200 50  0000 C CNN
F 2 "Capacitor_SMD:C_0603_1608Metric" H 3050 3200 50  0001 C CNN
F 3 "~" H 3050 3200 50  0001 C CNN
	1    3050 3200
	0    1    1    0   
$EndComp
$Comp
L pspice:CAP C?
U 1 1 5F35F5E3
P 3050 3750
AR Path="/5F35E3B0/5F35F5E3" Ref="C?"  Part="1" 
AR Path="/5F449C45/5F35F5E3" Ref="C?"  Part="1" 
AR Path="/5F450F7C/5F35F5E3" Ref="C?"  Part="1" 
AR Path="/5F459E15/5F35F5E3" Ref="C?"  Part="1" 
AR Path="/5F37F60A/5F35F5E3" Ref="C?"  Part="1" 
AR Path="/5F37F649/5F35F5E3" Ref="C?"  Part="1" 
AR Path="/5F37F688/5F35F5E3" Ref="C?"  Part="1" 
AR Path="/5F37F6C7/5F35F5E3" Ref="C?"  Part="1" 
AR Path="/5F380EFA/5F38AEF1/5F35F5E3" Ref="C?"  Part="1" 
AR Path="/5F380EFA/5F38AF20/5F35F5E3" Ref="C?"  Part="1" 
AR Path="/5F380EFA/5F38AF4F/5F35F5E3" Ref="C?"  Part="1" 
AR Path="/5F380EFA/5F38AF7E/5F35F5E3" Ref="C?"  Part="1" 
AR Path="/5F38AEF1/5F35F5E3" Ref="C?"  Part="1" 
AR Path="/5F38AF20/5F35F5E3" Ref="C?"  Part="1" 
AR Path="/5F38AF4F/5F35F5E3" Ref="C?"  Part="1" 
AR Path="/5F38AF7E/5F35F5E3" Ref="C?"  Part="1" 
AR Path="/5F4C2A6A/5F35F5E3" Ref="C?"  Part="1" 
AR Path="/5F4C2A99/5F35F5E3" Ref="C?"  Part="1" 
AR Path="/5F4C2AC8/5F35F5E3" Ref="C?"  Part="1" 
AR Path="/5F4C2AF7/5F35F5E3" Ref="C?"  Part="1" 
AR Path="/5F6E3882/5F35F5E3" Ref="C?"  Part="1" 
AR Path="/5F6DCDFC/5F35F5E3" Ref="C?"  Part="1" 
AR Path="/5F6DF6FF/5F35F5E3" Ref="C?"  Part="1" 
AR Path="/5F6DF721/5F35F5E3" Ref="C?"  Part="1" 
AR Path="/5F6E383E/5F35F5E3" Ref="C?"  Part="1" 
AR Path="/5F6E3860/5F35F5E3" Ref="C?"  Part="1" 
AR Path="/5F6E38A4/5F35F5E3" Ref="C?"  Part="1" 
AR Path="/5F4F6AAA/5F38AEF1/5F35F5E3" Ref="C302"  Part="1" 
AR Path="/5F4F6AAA/5F6DCDFC/5F35F5E3" Ref="C602"  Part="1" 
AR Path="/5F4F6AAA/5F6DF6FF/5F35F5E3" Ref="C802"  Part="1" 
AR Path="/5F4F6AAA/5F6DF721/5F35F5E3" Ref="C1102"  Part="1" 
AR Path="/5F4F6AAA/5F6E383E/5F35F5E3" Ref="C1402"  Part="1" 
AR Path="/5F4F6AAA/5F6E3860/5F35F5E3" Ref="C1702"  Part="1" 
AR Path="/5F4F6AAA/5F6E3882/5F35F5E3" Ref="C2002"  Part="1" 
AR Path="/5F4F6AAA/5F6E38A4/5F35F5E3" Ref="C2302"  Part="1" 
F 0 "C2302" V 2735 3750 50  0000 C CNN
F 1 "1u" V 2826 3750 50  0000 C CNN
F 2 "Capacitor_SMD:C_0603_1608Metric" H 3050 3750 50  0001 C CNN
F 3 "~" H 3050 3750 50  0001 C CNN
	1    3050 3750
	0    1    1    0   
$EndComp
Wire Wire Line
	2800 3200 2550 3200
Wire Wire Line
	2550 3750 2800 3750
Wire Wire Line
	3450 3750 3450 3200
Wire Wire Line
	3450 3200 3300 3200
Wire Wire Line
	3300 3750 3450 3750
Connection ~ 3450 3200
Wire Wire Line
	3450 2800 3450 3200
$Comp
L pspice:R R?
U 1 1 5F35F5FA
P 5000 3800
AR Path="/5F35E3B0/5F35F5FA" Ref="R?"  Part="1" 
AR Path="/5F449C45/5F35F5FA" Ref="R?"  Part="1" 
AR Path="/5F450F7C/5F35F5FA" Ref="R?"  Part="1" 
AR Path="/5F459E15/5F35F5FA" Ref="R?"  Part="1" 
AR Path="/5F37F60A/5F35F5FA" Ref="R?"  Part="1" 
AR Path="/5F37F649/5F35F5FA" Ref="R?"  Part="1" 
AR Path="/5F37F688/5F35F5FA" Ref="R?"  Part="1" 
AR Path="/5F37F6C7/5F35F5FA" Ref="R?"  Part="1" 
AR Path="/5F380EFA/5F38AEF1/5F35F5FA" Ref="R?"  Part="1" 
AR Path="/5F380EFA/5F38AF20/5F35F5FA" Ref="R?"  Part="1" 
AR Path="/5F380EFA/5F38AF4F/5F35F5FA" Ref="R?"  Part="1" 
AR Path="/5F380EFA/5F38AF7E/5F35F5FA" Ref="R?"  Part="1" 
AR Path="/5F38AEF1/5F35F5FA" Ref="R?"  Part="1" 
AR Path="/5F38AF20/5F35F5FA" Ref="R?"  Part="1" 
AR Path="/5F38AF4F/5F35F5FA" Ref="R?"  Part="1" 
AR Path="/5F38AF7E/5F35F5FA" Ref="R?"  Part="1" 
AR Path="/5F4C2A6A/5F35F5FA" Ref="R?"  Part="1" 
AR Path="/5F4C2A99/5F35F5FA" Ref="R?"  Part="1" 
AR Path="/5F4C2AC8/5F35F5FA" Ref="R?"  Part="1" 
AR Path="/5F4C2AF7/5F35F5FA" Ref="R?"  Part="1" 
AR Path="/5F6E3882/5F35F5FA" Ref="R?"  Part="1" 
AR Path="/5F6DCDFC/5F35F5FA" Ref="R?"  Part="1" 
AR Path="/5F6DF6FF/5F35F5FA" Ref="R?"  Part="1" 
AR Path="/5F6DF721/5F35F5FA" Ref="R?"  Part="1" 
AR Path="/5F6E383E/5F35F5FA" Ref="R?"  Part="1" 
AR Path="/5F6E3860/5F35F5FA" Ref="R?"  Part="1" 
AR Path="/5F6E38A4/5F35F5FA" Ref="R?"  Part="1" 
AR Path="/5F4F6AAA/5F38AEF1/5F35F5FA" Ref="R308"  Part="1" 
AR Path="/5F4F6AAA/5F6DCDFC/5F35F5FA" Ref="R608"  Part="1" 
AR Path="/5F4F6AAA/5F6DF6FF/5F35F5FA" Ref="R808"  Part="1" 
AR Path="/5F4F6AAA/5F6DF721/5F35F5FA" Ref="R1108"  Part="1" 
AR Path="/5F4F6AAA/5F6E383E/5F35F5FA" Ref="R1408"  Part="1" 
AR Path="/5F4F6AAA/5F6E3860/5F35F5FA" Ref="R1708"  Part="1" 
AR Path="/5F4F6AAA/5F6E3882/5F35F5FA" Ref="R2008"  Part="1" 
AR Path="/5F4F6AAA/5F6E38A4/5F35F5FA" Ref="R2308"  Part="1" 
F 0 "R2308" V 4795 3800 50  0000 C CNN
F 1 "4.7k" V 4886 3800 50  0000 C CNN
F 2 "Resistor_SMD:R_0603_1608Metric" H 5000 3800 50  0001 C CNN
F 3 "~" H 5000 3800 50  0001 C CNN
	1    5000 3800
	0    1    1    0   
$EndComp
Wire Wire Line
	4750 3600 4750 3800
Wire Wire Line
	4550 1900 4550 1650
Wire Wire Line
	4550 1900 4900 1900
Connection ~ 4550 1900
Connection ~ 4900 1900
Wire Wire Line
	4900 1900 4900 2400
Wire Wire Line
	5400 2700 5400 2400
Connection ~ 5400 2400
$Comp
L RF:MC12080 U?
U 1 1 5F35F60B
P 4550 3200
AR Path="/5F35E3B0/5F35F60B" Ref="U?"  Part="1" 
AR Path="/5F449C45/5F35F60B" Ref="U?"  Part="1" 
AR Path="/5F450F7C/5F35F60B" Ref="U?"  Part="1" 
AR Path="/5F459E15/5F35F60B" Ref="U?"  Part="1" 
AR Path="/5F37F60A/5F35F60B" Ref="U?"  Part="1" 
AR Path="/5F37F649/5F35F60B" Ref="U?"  Part="1" 
AR Path="/5F37F688/5F35F60B" Ref="U?"  Part="1" 
AR Path="/5F37F6C7/5F35F60B" Ref="U?"  Part="1" 
AR Path="/5F380EFA/5F38AEF1/5F35F60B" Ref="U?"  Part="1" 
AR Path="/5F380EFA/5F38AF20/5F35F60B" Ref="U?"  Part="1" 
AR Path="/5F380EFA/5F38AF4F/5F35F60B" Ref="U?"  Part="1" 
AR Path="/5F380EFA/5F38AF7E/5F35F60B" Ref="U?"  Part="1" 
AR Path="/5F38AEF1/5F35F60B" Ref="U?"  Part="1" 
AR Path="/5F38AF20/5F35F60B" Ref="U?"  Part="1" 
AR Path="/5F38AF4F/5F35F60B" Ref="U?"  Part="1" 
AR Path="/5F38AF7E/5F35F60B" Ref="U?"  Part="1" 
AR Path="/5F4C2A6A/5F35F60B" Ref="U?"  Part="1" 
AR Path="/5F4C2A99/5F35F60B" Ref="U?"  Part="1" 
AR Path="/5F4C2AC8/5F35F60B" Ref="U?"  Part="1" 
AR Path="/5F4C2AF7/5F35F60B" Ref="U?"  Part="1" 
AR Path="/5F6E3882/5F35F60B" Ref="U?"  Part="1" 
AR Path="/5F6DCDFC/5F35F60B" Ref="U?"  Part="1" 
AR Path="/5F6DF6FF/5F35F60B" Ref="U?"  Part="1" 
AR Path="/5F6DF721/5F35F60B" Ref="U?"  Part="1" 
AR Path="/5F6E383E/5F35F60B" Ref="U?"  Part="1" 
AR Path="/5F6E3860/5F35F60B" Ref="U?"  Part="1" 
AR Path="/5F6E38A4/5F35F60B" Ref="U?"  Part="1" 
AR Path="/5F4F6AAA/5F38AEF1/5F35F60B" Ref="U301"  Part="1" 
AR Path="/5F4F6AAA/5F6DCDFC/5F35F60B" Ref="U601"  Part="1" 
AR Path="/5F4F6AAA/5F6DF6FF/5F35F60B" Ref="U801"  Part="1" 
AR Path="/5F4F6AAA/5F6DF721/5F35F60B" Ref="U1101"  Part="1" 
AR Path="/5F4F6AAA/5F6E383E/5F35F60B" Ref="U1401"  Part="1" 
AR Path="/5F4F6AAA/5F6E3860/5F35F60B" Ref="U1701"  Part="1" 
AR Path="/5F4F6AAA/5F6E3882/5F35F60B" Ref="U2001"  Part="1" 
AR Path="/5F4F6AAA/5F6E38A4/5F35F60B" Ref="U2301"  Part="1" 
F 0 "U2301" V 4250 3000 50  0000 C CNN
F 1 "MC12080" V 4250 2750 50  0000 C CNN
F 2 "Package_SO:SOIC-8_3.9x4.9mm_P1.27mm" H 4550 2650 50  0001 C CNN
F 3 "https://www.onsemi.com/pub/Collateral/MC12080-D.PDF" H 4550 3200 50  0001 C CNN
F 4 "R" H 4550 3200 50  0001 C CNN "Spice_Primitive"
F 5 "0" H 4550 3200 50  0001 C CNN "Spice_Model"
F 6 "N" H 4550 3200 50  0001 C CNN "Spice_Netlist_Enabled"
	1    4550 3200
	0    -1   1    0   
$EndComp
Wire Wire Line
	3900 1900 3750 1900
Wire Wire Line
	3750 1450 3750 1900
Wire Wire Line
	5400 2700 4650 2700
Wire Wire Line
	4650 2700 4650 2800
Wire Wire Line
	3450 3200 4050 3200
Wire Wire Line
	5050 3200 5250 3200
Wire Wire Line
	5250 3800 5450 3800
Connection ~ 4750 3800
Connection ~ 3550 4450
Wire Wire Line
	3550 4250 3550 4450
Wire Wire Line
	4350 4250 3550 4250
Wire Wire Line
	4350 3600 4350 4250
Connection ~ 4050 4450
Wire Wire Line
	4050 4350 4050 4450
Wire Wire Line
	4450 4350 4050 4350
Wire Wire Line
	4450 3600 4450 4350
Connection ~ 4550 4450
Wire Wire Line
	4550 3600 4550 4450
Wire Wire Line
	3300 4950 3300 5100
Wire Wire Line
	3550 4950 3550 5150
Wire Wire Line
	4050 4950 4050 5150
Wire Wire Line
	3800 4950 3800 5100
Wire Wire Line
	4300 4950 4300 5100
Wire Wire Line
	4550 4950 4550 5150
Wire Wire Line
	3550 4450 3300 4450
Wire Wire Line
	4050 4450 3800 4450
Wire Wire Line
	4300 4450 4550 4450
$Comp
L pspice:R R?
U 1 1 5F35F651
P 3550 4700
AR Path="/5F35E3B0/5F35F651" Ref="R?"  Part="1" 
AR Path="/5F449C45/5F35F651" Ref="R?"  Part="1" 
AR Path="/5F450F7C/5F35F651" Ref="R?"  Part="1" 
AR Path="/5F459E15/5F35F651" Ref="R?"  Part="1" 
AR Path="/5F37F60A/5F35F651" Ref="R?"  Part="1" 
AR Path="/5F37F649/5F35F651" Ref="R?"  Part="1" 
AR Path="/5F37F688/5F35F651" Ref="R?"  Part="1" 
AR Path="/5F37F6C7/5F35F651" Ref="R?"  Part="1" 
AR Path="/5F380EFA/5F38AEF1/5F35F651" Ref="R?"  Part="1" 
AR Path="/5F380EFA/5F38AF20/5F35F651" Ref="R?"  Part="1" 
AR Path="/5F380EFA/5F38AF4F/5F35F651" Ref="R?"  Part="1" 
AR Path="/5F380EFA/5F38AF7E/5F35F651" Ref="R?"  Part="1" 
AR Path="/5F38AEF1/5F35F651" Ref="R?"  Part="1" 
AR Path="/5F38AF20/5F35F651" Ref="R?"  Part="1" 
AR Path="/5F38AF4F/5F35F651" Ref="R?"  Part="1" 
AR Path="/5F38AF7E/5F35F651" Ref="R?"  Part="1" 
AR Path="/5F4C2A6A/5F35F651" Ref="R?"  Part="1" 
AR Path="/5F4C2A99/5F35F651" Ref="R?"  Part="1" 
AR Path="/5F4C2AC8/5F35F651" Ref="R?"  Part="1" 
AR Path="/5F4C2AF7/5F35F651" Ref="R?"  Part="1" 
AR Path="/5F6E3882/5F35F651" Ref="R?"  Part="1" 
AR Path="/5F6DCDFC/5F35F651" Ref="R?"  Part="1" 
AR Path="/5F6DF6FF/5F35F651" Ref="R?"  Part="1" 
AR Path="/5F6DF721/5F35F651" Ref="R?"  Part="1" 
AR Path="/5F6E383E/5F35F651" Ref="R?"  Part="1" 
AR Path="/5F6E3860/5F35F651" Ref="R?"  Part="1" 
AR Path="/5F6E38A4/5F35F651" Ref="R?"  Part="1" 
AR Path="/5F4F6AAA/5F38AEF1/5F35F651" Ref="R302"  Part="1" 
AR Path="/5F4F6AAA/5F6DCDFC/5F35F651" Ref="R602"  Part="1" 
AR Path="/5F4F6AAA/5F6DF6FF/5F35F651" Ref="R802"  Part="1" 
AR Path="/5F4F6AAA/5F6DF721/5F35F651" Ref="R1102"  Part="1" 
AR Path="/5F4F6AAA/5F6E383E/5F35F651" Ref="R1402"  Part="1" 
AR Path="/5F4F6AAA/5F6E3860/5F35F651" Ref="R1702"  Part="1" 
AR Path="/5F4F6AAA/5F6E3882/5F35F651" Ref="R2002"  Part="1" 
AR Path="/5F4F6AAA/5F6E38A4/5F35F651" Ref="R2302"  Part="1" 
F 0 "R2302" V 3450 4550 50  0000 L CNN
F 1 "0" V 3450 4800 50  0000 L CNN
F 2 "Resistor_SMD:R_0402_1005Metric" H 3550 4700 50  0001 C CNN
F 3 "~" H 3550 4700 50  0001 C CNN
	1    3550 4700
	1    0    0    -1  
$EndComp
$Comp
L pspice:R R?
U 1 1 5F35F657
P 3300 4700
AR Path="/5F35E3B0/5F35F657" Ref="R?"  Part="1" 
AR Path="/5F449C45/5F35F657" Ref="R?"  Part="1" 
AR Path="/5F450F7C/5F35F657" Ref="R?"  Part="1" 
AR Path="/5F459E15/5F35F657" Ref="R?"  Part="1" 
AR Path="/5F37F60A/5F35F657" Ref="R?"  Part="1" 
AR Path="/5F37F649/5F35F657" Ref="R?"  Part="1" 
AR Path="/5F37F688/5F35F657" Ref="R?"  Part="1" 
AR Path="/5F37F6C7/5F35F657" Ref="R?"  Part="1" 
AR Path="/5F380EFA/5F38AEF1/5F35F657" Ref="R?"  Part="1" 
AR Path="/5F380EFA/5F38AF20/5F35F657" Ref="R?"  Part="1" 
AR Path="/5F380EFA/5F38AF4F/5F35F657" Ref="R?"  Part="1" 
AR Path="/5F380EFA/5F38AF7E/5F35F657" Ref="R?"  Part="1" 
AR Path="/5F38AEF1/5F35F657" Ref="R?"  Part="1" 
AR Path="/5F38AF20/5F35F657" Ref="R?"  Part="1" 
AR Path="/5F38AF4F/5F35F657" Ref="R?"  Part="1" 
AR Path="/5F38AF7E/5F35F657" Ref="R?"  Part="1" 
AR Path="/5F4C2A6A/5F35F657" Ref="R?"  Part="1" 
AR Path="/5F4C2A99/5F35F657" Ref="R?"  Part="1" 
AR Path="/5F4C2AC8/5F35F657" Ref="R?"  Part="1" 
AR Path="/5F4C2AF7/5F35F657" Ref="R?"  Part="1" 
AR Path="/5F6E3882/5F35F657" Ref="R?"  Part="1" 
AR Path="/5F6DCDFC/5F35F657" Ref="R?"  Part="1" 
AR Path="/5F6DF6FF/5F35F657" Ref="R?"  Part="1" 
AR Path="/5F6DF721/5F35F657" Ref="R?"  Part="1" 
AR Path="/5F6E383E/5F35F657" Ref="R?"  Part="1" 
AR Path="/5F6E3860/5F35F657" Ref="R?"  Part="1" 
AR Path="/5F6E38A4/5F35F657" Ref="R?"  Part="1" 
AR Path="/5F4F6AAA/5F38AEF1/5F35F657" Ref="R301"  Part="1" 
AR Path="/5F4F6AAA/5F6DCDFC/5F35F657" Ref="R601"  Part="1" 
AR Path="/5F4F6AAA/5F6DF6FF/5F35F657" Ref="R801"  Part="1" 
AR Path="/5F4F6AAA/5F6DF721/5F35F657" Ref="R1101"  Part="1" 
AR Path="/5F4F6AAA/5F6E383E/5F35F657" Ref="R1401"  Part="1" 
AR Path="/5F4F6AAA/5F6E3860/5F35F657" Ref="R1701"  Part="1" 
AR Path="/5F4F6AAA/5F6E3882/5F35F657" Ref="R2001"  Part="1" 
AR Path="/5F4F6AAA/5F6E38A4/5F35F657" Ref="R2301"  Part="1" 
F 0 "R2301" V 3200 4550 50  0000 L CNN
F 1 "0" V 3200 4800 50  0000 L CNN
F 2 "Resistor_SMD:R_0402_1005Metric" H 3300 4700 50  0001 C CNN
F 3 "~" H 3300 4700 50  0001 C CNN
	1    3300 4700
	1    0    0    -1  
$EndComp
$Comp
L pspice:R R?
U 1 1 5F35F65D
P 4550 4700
AR Path="/5F35E3B0/5F35F65D" Ref="R?"  Part="1" 
AR Path="/5F449C45/5F35F65D" Ref="R?"  Part="1" 
AR Path="/5F450F7C/5F35F65D" Ref="R?"  Part="1" 
AR Path="/5F459E15/5F35F65D" Ref="R?"  Part="1" 
AR Path="/5F37F60A/5F35F65D" Ref="R?"  Part="1" 
AR Path="/5F37F649/5F35F65D" Ref="R?"  Part="1" 
AR Path="/5F37F688/5F35F65D" Ref="R?"  Part="1" 
AR Path="/5F37F6C7/5F35F65D" Ref="R?"  Part="1" 
AR Path="/5F380EFA/5F38AEF1/5F35F65D" Ref="R?"  Part="1" 
AR Path="/5F380EFA/5F38AF20/5F35F65D" Ref="R?"  Part="1" 
AR Path="/5F380EFA/5F38AF4F/5F35F65D" Ref="R?"  Part="1" 
AR Path="/5F380EFA/5F38AF7E/5F35F65D" Ref="R?"  Part="1" 
AR Path="/5F38AEF1/5F35F65D" Ref="R?"  Part="1" 
AR Path="/5F38AF20/5F35F65D" Ref="R?"  Part="1" 
AR Path="/5F38AF4F/5F35F65D" Ref="R?"  Part="1" 
AR Path="/5F38AF7E/5F35F65D" Ref="R?"  Part="1" 
AR Path="/5F4C2A6A/5F35F65D" Ref="R?"  Part="1" 
AR Path="/5F4C2A99/5F35F65D" Ref="R?"  Part="1" 
AR Path="/5F4C2AC8/5F35F65D" Ref="R?"  Part="1" 
AR Path="/5F4C2AF7/5F35F65D" Ref="R?"  Part="1" 
AR Path="/5F6E3882/5F35F65D" Ref="R?"  Part="1" 
AR Path="/5F6DCDFC/5F35F65D" Ref="R?"  Part="1" 
AR Path="/5F6DF6FF/5F35F65D" Ref="R?"  Part="1" 
AR Path="/5F6DF721/5F35F65D" Ref="R?"  Part="1" 
AR Path="/5F6E383E/5F35F65D" Ref="R?"  Part="1" 
AR Path="/5F6E3860/5F35F65D" Ref="R?"  Part="1" 
AR Path="/5F6E38A4/5F35F65D" Ref="R?"  Part="1" 
AR Path="/5F4F6AAA/5F38AEF1/5F35F65D" Ref="R307"  Part="1" 
AR Path="/5F4F6AAA/5F6DCDFC/5F35F65D" Ref="R607"  Part="1" 
AR Path="/5F4F6AAA/5F6DF6FF/5F35F65D" Ref="R807"  Part="1" 
AR Path="/5F4F6AAA/5F6DF721/5F35F65D" Ref="R1107"  Part="1" 
AR Path="/5F4F6AAA/5F6E383E/5F35F65D" Ref="R1407"  Part="1" 
AR Path="/5F4F6AAA/5F6E3860/5F35F65D" Ref="R1707"  Part="1" 
AR Path="/5F4F6AAA/5F6E3882/5F35F65D" Ref="R2007"  Part="1" 
AR Path="/5F4F6AAA/5F6E38A4/5F35F65D" Ref="R2307"  Part="1" 
F 0 "R2307" V 4450 4650 50  0000 C CNN
F 1 "0" V 4450 4800 50  0000 C CNN
F 2 "Resistor_SMD:R_0402_1005Metric" H 4550 4700 50  0001 C CNN
F 3 "~" H 4550 4700 50  0001 C CNN
	1    4550 4700
	1    0    0    -1  
$EndComp
$Comp
L pspice:R R?
U 1 1 5F35F663
P 4300 4700
AR Path="/5F35E3B0/5F35F663" Ref="R?"  Part="1" 
AR Path="/5F449C45/5F35F663" Ref="R?"  Part="1" 
AR Path="/5F450F7C/5F35F663" Ref="R?"  Part="1" 
AR Path="/5F459E15/5F35F663" Ref="R?"  Part="1" 
AR Path="/5F37F60A/5F35F663" Ref="R?"  Part="1" 
AR Path="/5F37F649/5F35F663" Ref="R?"  Part="1" 
AR Path="/5F37F688/5F35F663" Ref="R?"  Part="1" 
AR Path="/5F37F6C7/5F35F663" Ref="R?"  Part="1" 
AR Path="/5F380EFA/5F38AEF1/5F35F663" Ref="R?"  Part="1" 
AR Path="/5F380EFA/5F38AF20/5F35F663" Ref="R?"  Part="1" 
AR Path="/5F380EFA/5F38AF4F/5F35F663" Ref="R?"  Part="1" 
AR Path="/5F380EFA/5F38AF7E/5F35F663" Ref="R?"  Part="1" 
AR Path="/5F38AEF1/5F35F663" Ref="R?"  Part="1" 
AR Path="/5F38AF20/5F35F663" Ref="R?"  Part="1" 
AR Path="/5F38AF4F/5F35F663" Ref="R?"  Part="1" 
AR Path="/5F38AF7E/5F35F663" Ref="R?"  Part="1" 
AR Path="/5F4C2A6A/5F35F663" Ref="R?"  Part="1" 
AR Path="/5F4C2A99/5F35F663" Ref="R?"  Part="1" 
AR Path="/5F4C2AC8/5F35F663" Ref="R?"  Part="1" 
AR Path="/5F4C2AF7/5F35F663" Ref="R?"  Part="1" 
AR Path="/5F6E3882/5F35F663" Ref="R?"  Part="1" 
AR Path="/5F6DCDFC/5F35F663" Ref="R?"  Part="1" 
AR Path="/5F6DF6FF/5F35F663" Ref="R?"  Part="1" 
AR Path="/5F6DF721/5F35F663" Ref="R?"  Part="1" 
AR Path="/5F6E383E/5F35F663" Ref="R?"  Part="1" 
AR Path="/5F6E3860/5F35F663" Ref="R?"  Part="1" 
AR Path="/5F6E38A4/5F35F663" Ref="R?"  Part="1" 
AR Path="/5F4F6AAA/5F38AEF1/5F35F663" Ref="R306"  Part="1" 
AR Path="/5F4F6AAA/5F6DCDFC/5F35F663" Ref="R606"  Part="1" 
AR Path="/5F4F6AAA/5F6DF6FF/5F35F663" Ref="R806"  Part="1" 
AR Path="/5F4F6AAA/5F6DF721/5F35F663" Ref="R1106"  Part="1" 
AR Path="/5F4F6AAA/5F6E383E/5F35F663" Ref="R1406"  Part="1" 
AR Path="/5F4F6AAA/5F6E3860/5F35F663" Ref="R1706"  Part="1" 
AR Path="/5F4F6AAA/5F6E3882/5F35F663" Ref="R2006"  Part="1" 
AR Path="/5F4F6AAA/5F6E38A4/5F35F663" Ref="R2306"  Part="1" 
F 0 "R2306" V 4200 4650 50  0000 C CNN
F 1 "0" V 4200 4800 50  0000 C CNN
F 2 "Resistor_SMD:R_0402_1005Metric" H 4300 4700 50  0001 C CNN
F 3 "~" H 4300 4700 50  0001 C CNN
	1    4300 4700
	1    0    0    -1  
$EndComp
$Comp
L pspice:R R?
U 1 1 5F35F669
P 4050 4700
AR Path="/5F35E3B0/5F35F669" Ref="R?"  Part="1" 
AR Path="/5F449C45/5F35F669" Ref="R?"  Part="1" 
AR Path="/5F450F7C/5F35F669" Ref="R?"  Part="1" 
AR Path="/5F459E15/5F35F669" Ref="R?"  Part="1" 
AR Path="/5F37F60A/5F35F669" Ref="R?"  Part="1" 
AR Path="/5F37F649/5F35F669" Ref="R?"  Part="1" 
AR Path="/5F37F688/5F35F669" Ref="R?"  Part="1" 
AR Path="/5F37F6C7/5F35F669" Ref="R?"  Part="1" 
AR Path="/5F380EFA/5F38AEF1/5F35F669" Ref="R?"  Part="1" 
AR Path="/5F380EFA/5F38AF20/5F35F669" Ref="R?"  Part="1" 
AR Path="/5F380EFA/5F38AF4F/5F35F669" Ref="R?"  Part="1" 
AR Path="/5F380EFA/5F38AF7E/5F35F669" Ref="R?"  Part="1" 
AR Path="/5F38AEF1/5F35F669" Ref="R?"  Part="1" 
AR Path="/5F38AF20/5F35F669" Ref="R?"  Part="1" 
AR Path="/5F38AF4F/5F35F669" Ref="R?"  Part="1" 
AR Path="/5F38AF7E/5F35F669" Ref="R?"  Part="1" 
AR Path="/5F4C2A6A/5F35F669" Ref="R?"  Part="1" 
AR Path="/5F4C2A99/5F35F669" Ref="R?"  Part="1" 
AR Path="/5F4C2AC8/5F35F669" Ref="R?"  Part="1" 
AR Path="/5F4C2AF7/5F35F669" Ref="R?"  Part="1" 
AR Path="/5F6E3882/5F35F669" Ref="R?"  Part="1" 
AR Path="/5F6DCDFC/5F35F669" Ref="R?"  Part="1" 
AR Path="/5F6DF6FF/5F35F669" Ref="R?"  Part="1" 
AR Path="/5F6DF721/5F35F669" Ref="R?"  Part="1" 
AR Path="/5F6E383E/5F35F669" Ref="R?"  Part="1" 
AR Path="/5F6E3860/5F35F669" Ref="R?"  Part="1" 
AR Path="/5F6E38A4/5F35F669" Ref="R?"  Part="1" 
AR Path="/5F4F6AAA/5F38AEF1/5F35F669" Ref="R304"  Part="1" 
AR Path="/5F4F6AAA/5F6DCDFC/5F35F669" Ref="R604"  Part="1" 
AR Path="/5F4F6AAA/5F6DF6FF/5F35F669" Ref="R804"  Part="1" 
AR Path="/5F4F6AAA/5F6DF721/5F35F669" Ref="R1104"  Part="1" 
AR Path="/5F4F6AAA/5F6E383E/5F35F669" Ref="R1404"  Part="1" 
AR Path="/5F4F6AAA/5F6E3860/5F35F669" Ref="R1704"  Part="1" 
AR Path="/5F4F6AAA/5F6E3882/5F35F669" Ref="R2004"  Part="1" 
AR Path="/5F4F6AAA/5F6E38A4/5F35F669" Ref="R2304"  Part="1" 
F 0 "R2304" V 3950 4650 50  0000 C CNN
F 1 "0" V 3950 4800 50  0000 C CNN
F 2 "Resistor_SMD:R_0402_1005Metric" H 4050 4700 50  0001 C CNN
F 3 "~" H 4050 4700 50  0001 C CNN
	1    4050 4700
	1    0    0    -1  
$EndComp
$Comp
L pspice:R R?
U 1 1 5F35F66F
P 3800 4700
AR Path="/5F35E3B0/5F35F66F" Ref="R?"  Part="1" 
AR Path="/5F449C45/5F35F66F" Ref="R?"  Part="1" 
AR Path="/5F450F7C/5F35F66F" Ref="R?"  Part="1" 
AR Path="/5F459E15/5F35F66F" Ref="R?"  Part="1" 
AR Path="/5F37F60A/5F35F66F" Ref="R?"  Part="1" 
AR Path="/5F37F649/5F35F66F" Ref="R?"  Part="1" 
AR Path="/5F37F688/5F35F66F" Ref="R?"  Part="1" 
AR Path="/5F37F6C7/5F35F66F" Ref="R?"  Part="1" 
AR Path="/5F380EFA/5F38AEF1/5F35F66F" Ref="R?"  Part="1" 
AR Path="/5F380EFA/5F38AF20/5F35F66F" Ref="R?"  Part="1" 
AR Path="/5F380EFA/5F38AF4F/5F35F66F" Ref="R?"  Part="1" 
AR Path="/5F380EFA/5F38AF7E/5F35F66F" Ref="R?"  Part="1" 
AR Path="/5F38AEF1/5F35F66F" Ref="R?"  Part="1" 
AR Path="/5F38AF20/5F35F66F" Ref="R?"  Part="1" 
AR Path="/5F38AF4F/5F35F66F" Ref="R?"  Part="1" 
AR Path="/5F38AF7E/5F35F66F" Ref="R?"  Part="1" 
AR Path="/5F4C2A6A/5F35F66F" Ref="R?"  Part="1" 
AR Path="/5F4C2A99/5F35F66F" Ref="R?"  Part="1" 
AR Path="/5F4C2AC8/5F35F66F" Ref="R?"  Part="1" 
AR Path="/5F4C2AF7/5F35F66F" Ref="R?"  Part="1" 
AR Path="/5F6E3882/5F35F66F" Ref="R?"  Part="1" 
AR Path="/5F6DCDFC/5F35F66F" Ref="R?"  Part="1" 
AR Path="/5F6DF6FF/5F35F66F" Ref="R?"  Part="1" 
AR Path="/5F6DF721/5F35F66F" Ref="R?"  Part="1" 
AR Path="/5F6E383E/5F35F66F" Ref="R?"  Part="1" 
AR Path="/5F6E3860/5F35F66F" Ref="R?"  Part="1" 
AR Path="/5F6E38A4/5F35F66F" Ref="R?"  Part="1" 
AR Path="/5F4F6AAA/5F38AEF1/5F35F66F" Ref="R303"  Part="1" 
AR Path="/5F4F6AAA/5F6DCDFC/5F35F66F" Ref="R603"  Part="1" 
AR Path="/5F4F6AAA/5F6DF6FF/5F35F66F" Ref="R803"  Part="1" 
AR Path="/5F4F6AAA/5F6DF721/5F35F66F" Ref="R1103"  Part="1" 
AR Path="/5F4F6AAA/5F6E383E/5F35F66F" Ref="R1403"  Part="1" 
AR Path="/5F4F6AAA/5F6E3860/5F35F66F" Ref="R1703"  Part="1" 
AR Path="/5F4F6AAA/5F6E3882/5F35F66F" Ref="R2003"  Part="1" 
AR Path="/5F4F6AAA/5F6E38A4/5F35F66F" Ref="R2303"  Part="1" 
F 0 "R2303" V 3700 4650 50  0000 C CNN
F 1 "0" V 3700 4800 50  0000 C CNN
F 2 "Resistor_SMD:R_0402_1005Metric" H 3800 4700 50  0001 C CNN
F 3 "~" H 3800 4700 50  0001 C CNN
	1    3800 4700
	1    0    0    -1  
$EndComp
$Comp
L pspice:CAP C?
U 1 1 5F35F675
P 4150 2400
AR Path="/5F35E3B0/5F35F675" Ref="C?"  Part="1" 
AR Path="/5F449C45/5F35F675" Ref="C?"  Part="1" 
AR Path="/5F450F7C/5F35F675" Ref="C?"  Part="1" 
AR Path="/5F459E15/5F35F675" Ref="C?"  Part="1" 
AR Path="/5F37F60A/5F35F675" Ref="C?"  Part="1" 
AR Path="/5F37F649/5F35F675" Ref="C?"  Part="1" 
AR Path="/5F37F688/5F35F675" Ref="C?"  Part="1" 
AR Path="/5F37F6C7/5F35F675" Ref="C?"  Part="1" 
AR Path="/5F380EFA/5F38AEF1/5F35F675" Ref="C?"  Part="1" 
AR Path="/5F380EFA/5F38AF20/5F35F675" Ref="C?"  Part="1" 
AR Path="/5F380EFA/5F38AF4F/5F35F675" Ref="C?"  Part="1" 
AR Path="/5F380EFA/5F38AF7E/5F35F675" Ref="C?"  Part="1" 
AR Path="/5F38AEF1/5F35F675" Ref="C?"  Part="1" 
AR Path="/5F38AF20/5F35F675" Ref="C?"  Part="1" 
AR Path="/5F38AF4F/5F35F675" Ref="C?"  Part="1" 
AR Path="/5F38AF7E/5F35F675" Ref="C?"  Part="1" 
AR Path="/5F4C2A6A/5F35F675" Ref="C?"  Part="1" 
AR Path="/5F4C2A99/5F35F675" Ref="C?"  Part="1" 
AR Path="/5F4C2AC8/5F35F675" Ref="C?"  Part="1" 
AR Path="/5F4C2AF7/5F35F675" Ref="C?"  Part="1" 
AR Path="/5F6E3882/5F35F675" Ref="C?"  Part="1" 
AR Path="/5F6DCDFC/5F35F675" Ref="C?"  Part="1" 
AR Path="/5F6DF6FF/5F35F675" Ref="C?"  Part="1" 
AR Path="/5F6DF721/5F35F675" Ref="C?"  Part="1" 
AR Path="/5F6E383E/5F35F675" Ref="C?"  Part="1" 
AR Path="/5F6E3860/5F35F675" Ref="C?"  Part="1" 
AR Path="/5F6E38A4/5F35F675" Ref="C?"  Part="1" 
AR Path="/5F4F6AAA/5F38AEF1/5F35F675" Ref="C303"  Part="1" 
AR Path="/5F4F6AAA/5F6DCDFC/5F35F675" Ref="C603"  Part="1" 
AR Path="/5F4F6AAA/5F6DF6FF/5F35F675" Ref="C803"  Part="1" 
AR Path="/5F4F6AAA/5F6DF721/5F35F675" Ref="C1103"  Part="1" 
AR Path="/5F4F6AAA/5F6E383E/5F35F675" Ref="C1403"  Part="1" 
AR Path="/5F4F6AAA/5F6E3860/5F35F675" Ref="C1703"  Part="1" 
AR Path="/5F4F6AAA/5F6E3882/5F35F675" Ref="C2003"  Part="1" 
AR Path="/5F4F6AAA/5F6E38A4/5F35F675" Ref="C2303"  Part="1" 
F 0 "C2303" V 3835 2400 50  0000 C CNN
F 1 "1000p" V 3926 2400 50  0000 C CNN
F 2 "Capacitor_SMD:C_0603_1608Metric" H 4150 2400 50  0001 C CNN
F 3 "~" H 4150 2400 50  0001 C CNN
	1    4150 2400
	0    1    1    0   
$EndComp
Wire Wire Line
	4400 2400 4450 2400
Wire Wire Line
	4450 2400 4450 2800
Wire Wire Line
	3900 2400 3750 2400
Wire Wire Line
	3750 2400 3750 1900
Connection ~ 3750 1900
$Comp
L pspice:R R?
U 1 1 5F35F680
P 4150 1900
AR Path="/5F35E3B0/5F35F680" Ref="R?"  Part="1" 
AR Path="/5F449C45/5F35F680" Ref="R?"  Part="1" 
AR Path="/5F450F7C/5F35F680" Ref="R?"  Part="1" 
AR Path="/5F459E15/5F35F680" Ref="R?"  Part="1" 
AR Path="/5F37F60A/5F35F680" Ref="R?"  Part="1" 
AR Path="/5F37F649/5F35F680" Ref="R?"  Part="1" 
AR Path="/5F37F688/5F35F680" Ref="R?"  Part="1" 
AR Path="/5F37F6C7/5F35F680" Ref="R?"  Part="1" 
AR Path="/5F380EFA/5F38AEF1/5F35F680" Ref="R?"  Part="1" 
AR Path="/5F380EFA/5F38AF20/5F35F680" Ref="R?"  Part="1" 
AR Path="/5F380EFA/5F38AF4F/5F35F680" Ref="R?"  Part="1" 
AR Path="/5F380EFA/5F38AF7E/5F35F680" Ref="R?"  Part="1" 
AR Path="/5F38AEF1/5F35F680" Ref="R?"  Part="1" 
AR Path="/5F38AF20/5F35F680" Ref="R?"  Part="1" 
AR Path="/5F38AF4F/5F35F680" Ref="R?"  Part="1" 
AR Path="/5F38AF7E/5F35F680" Ref="R?"  Part="1" 
AR Path="/5F4C2A6A/5F35F680" Ref="R?"  Part="1" 
AR Path="/5F4C2A99/5F35F680" Ref="R?"  Part="1" 
AR Path="/5F4C2AC8/5F35F680" Ref="R?"  Part="1" 
AR Path="/5F4C2AF7/5F35F680" Ref="R?"  Part="1" 
AR Path="/5F6E3882/5F35F680" Ref="R?"  Part="1" 
AR Path="/5F6DCDFC/5F35F680" Ref="R?"  Part="1" 
AR Path="/5F6DF6FF/5F35F680" Ref="R?"  Part="1" 
AR Path="/5F6DF721/5F35F680" Ref="R?"  Part="1" 
AR Path="/5F6E383E/5F35F680" Ref="R?"  Part="1" 
AR Path="/5F6E3860/5F35F680" Ref="R?"  Part="1" 
AR Path="/5F6E38A4/5F35F680" Ref="R?"  Part="1" 
AR Path="/5F4F6AAA/5F38AEF1/5F35F680" Ref="R305"  Part="1" 
AR Path="/5F4F6AAA/5F6DCDFC/5F35F680" Ref="R605"  Part="1" 
AR Path="/5F4F6AAA/5F6DF6FF/5F35F680" Ref="R805"  Part="1" 
AR Path="/5F4F6AAA/5F6DF721/5F35F680" Ref="R1105"  Part="1" 
AR Path="/5F4F6AAA/5F6E383E/5F35F680" Ref="R1405"  Part="1" 
AR Path="/5F4F6AAA/5F6E3860/5F35F680" Ref="R1705"  Part="1" 
AR Path="/5F4F6AAA/5F6E3882/5F35F680" Ref="R2005"  Part="1" 
AR Path="/5F4F6AAA/5F6E38A4/5F35F680" Ref="R2305"  Part="1" 
F 0 "R2305" V 4355 1900 50  0000 C CNN
F 1 "47" V 4264 1900 50  0000 C CNN
F 2 "Resistor_SMD:R_0603_1608Metric" H 4150 1900 50  0001 C CNN
F 3 "~" H 4150 1900 50  0001 C CNN
	1    4150 1900
	0    -1   -1   0   
$EndComp
Text Label 7200 2500 0    50   ~ 0
+V
Text HLabel 7650 2500 2    50   Input ~ 0
+V
Wire Wire Line
	7650 2500 7200 2500
Text Label 7200 2650 0    50   ~ 0
RF_IN
Text HLabel 7650 2650 2    50   Input ~ 0
RF_IN
Wire Wire Line
	7650 2650 7200 2650
Text Label 7200 2800 0    50   ~ 0
RF_OUT
Text HLabel 7650 2800 2    50   Output ~ 0
RF_OUT
Wire Wire Line
	7200 2800 7650 2800
Text HLabel 7650 2950 2    50   Input ~ 0
GND
Text Label 3300 5100 0    50   ~ 0
+V
Text Label 3800 5100 0    50   ~ 0
+V
Text Label 4300 5100 0    50   ~ 0
+V
Text Label 3450 2800 0    50   ~ 0
+V
Text Label 3750 1450 0    50   ~ 0
RF_IN
Text Label 4750 4850 3    50   ~ 0
RF_OUT
Wire Wire Line
	7200 2950 7650 2950
Text Label 7200 2950 0    50   ~ 0
GND
Text Label 5250 3200 0    50   ~ 0
GND
Text Label 5450 3800 0    50   ~ 0
GND
Text Label 3550 5150 3    50   ~ 0
GND
Text Label 4050 5150 3    50   ~ 0
GND
Text Label 4550 5150 3    50   ~ 0
GND
Text Label 4550 1650 1    50   ~ 0
GND
Connection ~ 2550 3450
Wire Wire Line
	2550 3450 2550 3750
Wire Wire Line
	2550 3200 2550 3450
Wire Wire Line
	2300 3450 2550 3450
Text Label 2300 3450 3    50   ~ 0
GND
$Comp
L pspice:CAP C?
U 1 1 5F947AD1
P 4750 4400
AR Path="/5F35E3B0/5F947AD1" Ref="C?"  Part="1" 
AR Path="/5F449C45/5F947AD1" Ref="C?"  Part="1" 
AR Path="/5F450F7C/5F947AD1" Ref="C?"  Part="1" 
AR Path="/5F459E15/5F947AD1" Ref="C?"  Part="1" 
AR Path="/5F37F60A/5F947AD1" Ref="C?"  Part="1" 
AR Path="/5F37F649/5F947AD1" Ref="C?"  Part="1" 
AR Path="/5F37F688/5F947AD1" Ref="C?"  Part="1" 
AR Path="/5F37F6C7/5F947AD1" Ref="C?"  Part="1" 
AR Path="/5F380EFA/5F38AEF1/5F947AD1" Ref="C?"  Part="1" 
AR Path="/5F380EFA/5F38AF20/5F947AD1" Ref="C?"  Part="1" 
AR Path="/5F380EFA/5F38AF4F/5F947AD1" Ref="C?"  Part="1" 
AR Path="/5F380EFA/5F38AF7E/5F947AD1" Ref="C?"  Part="1" 
AR Path="/5F38AEF1/5F947AD1" Ref="C?"  Part="1" 
AR Path="/5F38AF20/5F947AD1" Ref="C?"  Part="1" 
AR Path="/5F38AF4F/5F947AD1" Ref="C?"  Part="1" 
AR Path="/5F38AF7E/5F947AD1" Ref="C?"  Part="1" 
AR Path="/5F4C2A6A/5F947AD1" Ref="C?"  Part="1" 
AR Path="/5F4C2A99/5F947AD1" Ref="C?"  Part="1" 
AR Path="/5F4C2AC8/5F947AD1" Ref="C?"  Part="1" 
AR Path="/5F4C2AF7/5F947AD1" Ref="C?"  Part="1" 
AR Path="/5F6E3882/5F947AD1" Ref="C?"  Part="1" 
AR Path="/5F6DCDFC/5F947AD1" Ref="C?"  Part="1" 
AR Path="/5F6DF6FF/5F947AD1" Ref="C?"  Part="1" 
AR Path="/5F6DF721/5F947AD1" Ref="C?"  Part="1" 
AR Path="/5F6E383E/5F947AD1" Ref="C?"  Part="1" 
AR Path="/5F6E3860/5F947AD1" Ref="C?"  Part="1" 
AR Path="/5F6E38A4/5F947AD1" Ref="C?"  Part="1" 
AR Path="/5F4F6AAA/5F38AEF1/5F947AD1" Ref="C304"  Part="1" 
AR Path="/5F4F6AAA/5F6DCDFC/5F947AD1" Ref="C604"  Part="1" 
AR Path="/5F4F6AAA/5F6DF6FF/5F947AD1" Ref="C804"  Part="1" 
AR Path="/5F4F6AAA/5F6DF721/5F947AD1" Ref="C1104"  Part="1" 
AR Path="/5F4F6AAA/5F6E383E/5F947AD1" Ref="C1404"  Part="1" 
AR Path="/5F4F6AAA/5F6E3860/5F947AD1" Ref="C1704"  Part="1" 
AR Path="/5F4F6AAA/5F6E3882/5F947AD1" Ref="C2004"  Part="1" 
AR Path="/5F4F6AAA/5F6E38A4/5F947AD1" Ref="C2304"  Part="1" 
F 0 "C2304" V 4435 4400 50  0000 C CNN
F 1 "470p" V 4526 4400 50  0000 C CNN
F 2 "Capacitor_SMD:C_0603_1608Metric" H 4750 4400 50  0001 C CNN
F 3 "~" H 4750 4400 50  0001 C CNN
	1    4750 4400
	-1   0    0    1   
$EndComp
Wire Wire Line
	4750 3800 4750 4150
Wire Wire Line
	4750 4650 4750 4850
$EndSCHEMATC
