EESchema Schematic File Version 4
EELAYER 30 0
EELAYER END
$Descr User 9843 7874
encoding utf-8
Sheet 1 4
Title ""
Date ""
Rev ""
Comp ""
Comment1 ""
Comment2 ""
Comment3 ""
Comment4 ""
$EndDescr
Wire Wire Line
	8250 800  8050 800 
Connection ~ 8050 800 
Wire Wire Line
	8050 1000 8050 900 
Wire Wire Line
	8250 1000 8050 1000
Wire Wire Line
	8050 600  8050 800 
Wire Wire Line
	8250 600  8050 600 
$Comp
L Connector:Conn_01x01_Female J101
U 1 1 5D90379A
P 8450 600
F 0 "J101" H 8478 626 50  0000 L CNN
F 1 "Conn_01x01_Female" H 8478 535 50  0000 L CNN
F 2 "COMPONENT_LIBS:RF_SREW_HOLE_2.5mm" H 8450 600 50  0001 C CNN
F 3 "~" H 8450 600 50  0001 C CNN
F 4 "J" H 8450 600 50  0001 C CNN "Spice_Primitive"
F 5 "Conn_01x01_Female" H 8450 600 50  0001 C CNN "Spice_Model"
F 6 "N" H 8450 600 50  0001 C CNN "Spice_Netlist_Enabled"
	1    8450 600 
	1    0    0    -1  
$EndComp
Wire Wire Line
	8250 1200 8050 1200
Wire Wire Line
	8050 1200 8050 1000
Connection ~ 8050 1000
$Comp
L power:GND #PWR0111
U 1 1 5ED125A7
P 7900 900
F 0 "#PWR0111" H 7900 650 50  0001 C CNN
F 1 "GND" H 7905 727 50  0000 C CNN
F 2 "" H 7900 900 50  0001 C CNN
F 3 "" H 7900 900 50  0001 C CNN
	1    7900 900 
	0    1    1    0   
$EndComp
Wire Wire Line
	7900 900  8050 900 
Connection ~ 8050 900 
Wire Wire Line
	8050 900  8050 800 
Text GLabel 4250 6550 2    50   Input ~ 0
RF_LVL_OUT
Wire Wire Line
	4250 6550 4100 6550
$Comp
L pspice:0 #GND0103
U 1 1 5F33065C
P 2400 7100
F 0 "#GND0103" H 2400 7000 50  0001 C CNN
F 1 "0" H 2400 7189 50  0000 C CNN
F 2 "" H 2400 7100 50  0001 C CNN
F 3 "~" H 2400 7100 50  0001 C CNN
	1    2400 7100
	1    0    0    -1  
$EndComp
$Comp
L pspice:0 #GND0102
U 1 1 5F33B696
P 1400 7100
F 0 "#GND0102" H 1400 7000 50  0001 C CNN
F 1 "0" H 1400 7189 50  0000 C CNN
F 2 "" H 1400 7100 50  0001 C CNN
F 3 "~" H 1400 7100 50  0001 C CNN
	1    1400 7100
	1    0    0    -1  
$EndComp
Wire Wire Line
	1400 6950 1400 7100
Wire Wire Line
	2400 7100 2400 6950
Text GLabel 1400 6250 1    50   Input ~ 0
+3.3
Text GLabel 4000 6550 0    50   Input ~ 0
+3.3
Text GLabel 4000 6700 0    50   Input ~ 0
+5
Wire Wire Line
	4000 6700 4100 6700
Wire Wire Line
	4100 6700 4100 6550
Connection ~ 4100 6550
Wire Wire Line
	4100 6550 4000 6550
$Comp
L power:GND #PWR0101
U 1 1 5F361936
P 850 6300
F 0 "#PWR0101" H 850 6050 50  0001 C CNN
F 1 "GND" H 855 6127 50  0000 C CNN
F 2 "" H 850 6300 50  0001 C CNN
F 3 "" H 850 6300 50  0001 C CNN
	1    850  6300
	-1   0    0    1   
$EndComp
$Comp
L pspice:0 #GND0101
U 1 1 5F364437
P 850 7100
F 0 "#GND0101" H 850 7000 50  0001 C CNN
F 1 "0" H 850 7189 50  0000 C CNN
F 2 "" H 850 7100 50  0001 C CNN
F 3 "~" H 850 7100 50  0001 C CNN
	1    850  7100
	1    0    0    -1  
$EndComp
Wire Wire Line
	850  7100 850  6300
Text Notes 600  5900 0    50   ~ 0
.tran 100p 1000n 0 uic
$Comp
L Connector:Conn_01x01_Female J102
U 1 1 5F371B3C
P 8450 800
F 0 "J102" H 8478 826 50  0000 L CNN
F 1 "Conn_01x01_Female" H 8478 735 50  0000 L CNN
F 2 "COMPONENT_LIBS:RF_SREW_HOLE_2.5mm" H 8450 800 50  0001 C CNN
F 3 "~" H 8450 800 50  0001 C CNN
F 4 "J" H 8450 800 50  0001 C CNN "Spice_Primitive"
F 5 "Conn_01x01_Female" H 8450 800 50  0001 C CNN "Spice_Model"
F 6 "N" H 8450 800 50  0001 C CNN "Spice_Netlist_Enabled"
	1    8450 800 
	1    0    0    -1  
$EndComp
$Comp
L Connector:Conn_01x01_Female J103
U 1 1 5F373337
P 8450 1000
F 0 "J103" H 8478 1026 50  0000 L CNN
F 1 "Conn_01x01_Female" H 8478 935 50  0000 L CNN
F 2 "COMPONENT_LIBS:RF_SREW_HOLE_2.5mm" H 8450 1000 50  0001 C CNN
F 3 "~" H 8450 1000 50  0001 C CNN
F 4 "J" H 8450 1000 50  0001 C CNN "Spice_Primitive"
F 5 "Conn_01x01_Female" H 8450 1000 50  0001 C CNN "Spice_Model"
F 6 "N" H 8450 1000 50  0001 C CNN "Spice_Netlist_Enabled"
	1    8450 1000
	1    0    0    -1  
$EndComp
$Comp
L Connector:Conn_01x01_Female J104
U 1 1 5F3761E9
P 8450 1200
F 0 "J104" H 8478 1226 50  0000 L CNN
F 1 "Conn_01x01_Female" H 8478 1135 50  0000 L CNN
F 2 "COMPONENT_LIBS:RF_SREW_HOLE_2.5mm" H 8450 1200 50  0001 C CNN
F 3 "~" H 8450 1200 50  0001 C CNN
F 4 "J" H 8450 1200 50  0001 C CNN "Spice_Primitive"
F 5 "Conn_01x01_Female" H 8450 1200 50  0001 C CNN "Spice_Model"
F 6 "N" H 8450 1200 50  0001 C CNN "Spice_Netlist_Enabled"
	1    8450 1200
	1    0    0    -1  
$EndComp
Text GLabel 2400 6250 1    50   Input ~ 0
RF_IN
$Comp
L pspice:VSOURCE RF_SIGNAL101
U 1 1 5F33123D
P 2400 6650
F 0 "RF_SIGNAL101" H 2628 6696 50  0000 L CNN
F 1 "VSOURCE" H 2628 6605 50  0000 L CNN
F 2 "" H 2400 6650 50  0001 C CNN
F 3 "~" H 2400 6650 50  0001 C CNN
F 4 "V" H 2400 6650 50  0001 C CNN "Spice_Primitive"
F 5 "ac 0 sin(0 250m 200Meg)" H 2400 6650 50  0001 C CNN "Spice_Model"
F 6 "Y" H 2400 6650 50  0001 C CNN "Spice_Netlist_Enabled"
	1    2400 6650
	1    0    0    -1  
$EndComp
Wire Wire Line
	1400 6250 1400 6350
Wire Wire Line
	2400 6250 2400 6350
Wire Wire Line
	6450 1800 6200 1800
Text GLabel 6450 1800 2    50   Input ~ 0
RF_IN
Text GLabel 6450 1900 2    50   Input ~ 0
PRSC_OUT
Wire Notes Line
	3500 5750 3500 7300
Wire Notes Line
	3500 7300 550  7300
Wire Notes Line
	550  7300 550  5750
Wire Notes Line
	550  5750 3500 5750
$Comp
L pspice:R BY_PS_PRESC101
U 1 1 5F46F152
P 5500 2650
F 0 "BY_PS_PRESC101" V 5400 2650 50  0000 C CNN
F 1 "0.1" V 5600 2650 50  0000 C CNN
F 2 "Resistor_SMD:R_0402_1005Metric" H 5500 2650 50  0001 C CNN
F 3 "~" H 5500 2650 50  0001 C CNN
F 4 "R" H 5500 2650 50  0001 C CNN "Spice_Primitive"
F 5 "0.1" H 5500 2650 50  0001 C CNN "Spice_Model"
F 6 "Y" H 5500 2650 50  0001 C CNN "Spice_Netlist_Enabled"
	1    5500 2650
	0    1    1    0   
$EndComp
Text GLabel 6150 2650 2    50   Input ~ 0
RF_IN
Text GLabel 4850 2650 0    50   Input ~ 0
PRSC_OUT
Wire Wire Line
	6150 2650 5750 2650
Wire Wire Line
	5250 2650 4850 2650
$Sheet
S 4950 3400 1050 600 
U 5F33D501
F0 "RF_AMP" 50
F1 "RF_AMP.sch" 50
F2 "+V" I R 6000 3500 50 
F3 "RF_IN" I L 4950 3500 50 
F4 "RF_OUT" O L 4950 3900 50 
F5 "GND" I R 6000 3900 50 
$EndSheet
$Sheet
S 4950 4300 1050 600 
U 5F33EC0B
F0 "RF_LVLR" 50
F1 "RF_LVLR.sch" 50
F2 "+V" I R 6000 4400 50 
F3 "RF_OUT" O L 4950 4800 50 
F4 "GND" I R 6000 4800 50 
F5 "RF_IN" I L 4950 4400 50 
$EndSheet
Text GLabel 6150 3500 2    50   Input ~ 0
RF_LVL_OUT
Wire Wire Line
	6150 3500 6000 3500
Text GLabel 6150 4400 2    50   Input ~ 0
RF_LVL_OUT
Wire Wire Line
	6150 4400 6000 4400
$Comp
L power:GND #PWR0109
U 1 1 5F37FD87
P 6200 3900
F 0 "#PWR0109" H 6200 3650 50  0001 C CNN
F 1 "GND" H 6205 3727 50  0000 C CNN
F 2 "" H 6200 3900 50  0001 C CNN
F 3 "" H 6200 3900 50  0001 C CNN
	1    6200 3900
	0    -1   -1   0   
$EndComp
Wire Wire Line
	6000 3900 6200 3900
$Comp
L power:GND #PWR0110
U 1 1 5F38155D
P 6200 4800
F 0 "#PWR0110" H 6200 4550 50  0001 C CNN
F 1 "GND" H 6205 4627 50  0000 C CNN
F 2 "" H 6200 4800 50  0001 C CNN
F 3 "" H 6200 4800 50  0001 C CNN
	1    6200 4800
	0    -1   -1   0   
$EndComp
Wire Wire Line
	6000 4800 6200 4800
Text GLabel 4800 3500 0    50   Input ~ 0
PRSC_OUT
Wire Wire Line
	4950 3500 4800 3500
Text GLabel 4650 4800 0    50   Input ~ 0
RF_OUT
Wire Wire Line
	4650 4800 4950 4800
Wire Wire Line
	4650 3900 4950 3900
Text GLabel 3950 4350 3    50   Input ~ 0
LVL_IN
Wire Wire Line
	3950 4350 3950 4250
Wire Wire Line
	3950 3750 3950 3550
Text GLabel 4400 4400 0    50   Input ~ 0
LVL_IN
Text GLabel 3950 3550 1    50   Input ~ 0
PRSC_OUT
Wire Wire Line
	4400 4400 4650 4400
$Comp
L pspice:VSOURCE +3.101
U 1 1 5F3324B0
P 1400 6650
F 0 "+3.101" H 1628 6696 50  0000 L CNN
F 1 "VSOURCE" H 1628 6605 50  0000 L CNN
F 2 "" H 1400 6650 50  0001 C CNN
F 3 "~" H 1400 6650 50  0001 C CNN
F 4 "V" H 1400 6650 50  0001 C CNN "Spice_Primitive"
F 5 "dc 4.7" H 1400 6650 50  0001 C CNN "Spice_Model"
F 6 "Y" H 1400 6650 50  0001 C CNN "Spice_Netlist_Enabled"
	1    1400 6650
	1    0    0    -1  
$EndComp
$Sheet
S 4500 1250 1700 850 
U 5F358C7F
F0 "MC120xx" 50
F1 "MC120xx.sch" 50
F2 "+V" I R 6200 1400 50 
F3 "RF_IN" I R 6200 1800 50 
F4 "RF_OUT" O R 6200 1900 50 
F5 "GND" I L 4500 1400 50 
$EndSheet
Wire Wire Line
	6200 1900 6450 1900
Text GLabel 6450 1400 2    50   Input ~ 0
+5
Wire Wire Line
	6200 1400 6450 1400
$Comp
L power:GND #PWR?
U 1 1 5F3B4AFE
P 4250 1400
F 0 "#PWR?" H 4250 1150 50  0001 C CNN
F 1 "GND" H 4255 1227 50  0000 C CNN
F 2 "" H 4250 1400 50  0001 C CNN
F 3 "" H 4250 1400 50  0001 C CNN
	1    4250 1400
	0    1    1    0   
$EndComp
Wire Wire Line
	4500 1400 4250 1400
$Comp
L pspice:R BY_PS_AMP?
U 1 1 5F3C7AAB
P 3950 4000
F 0 "BY_PS_AMP?" V 3850 4000 50  0000 C CNN
F 1 "0.1" V 4050 4000 50  0000 C CNN
F 2 "Resistor_SMD:R_0402_1005Metric" H 3950 4000 50  0001 C CNN
F 3 "~" H 3950 4000 50  0001 C CNN
F 4 "R" H 3950 4000 50  0001 C CNN "Spice_Primitive"
F 5 "0.1" H 3950 4000 50  0001 C CNN "Spice_Model"
F 6 "Y" H 3950 4000 50  0001 C CNN "Spice_Netlist_Enabled"
	1    3950 4000
	1    0    0    -1  
$EndComp
Wire Wire Line
	4650 3900 4650 4400
Connection ~ 4650 4400
Wire Wire Line
	4650 4400 4950 4400
$EndSCHEMATC
